^C:\USERS\ARNO-W\DOCUMENTS\PROJECTS\SSGI\EXTERNAL\TINYXML2\TINYXML2.CPP|C:\USERS\ARNO-W\DOCUMENTS\PROJECTS\SSGI\SHADER\TEST\POSITIONFROMDEPTH.FS|C:\USERS\ARNO-W\DOCUMENTS\PROJECTS\SSGI\SOURCE\APPLICATION.CPP|C:\USERS\ARNO-W\DOCUMENTS\PROJECTS\SSGI\SOURCE\APPLICATIONCFG.CPP|C:\USERS\ARNO-W\DOCUMENTS\PROJECTS\SSGI\SOURCE\MAIN.CPP|C:\USERS\ARNO-W\DOCUMENTS\PROJECTS\SSGI\SOURCE\UPDATEHANDLER.CPP
C:\USERS\ARNO-W\DOCUMENTS\PROJECTS\SSGI\VISUALSTUDIO\SSGI\DEBUG\VC120.PDB
C:\USERS\ARNO-W\DOCUMENTS\PROJECTS\SSGI\VISUALSTUDIO\SSGI\DEBUG\VC120.IDB
C:\USERS\ARNO-W\DOCUMENTS\PROJECTS\SSGI\VISUALSTUDIO\SSGI\DEBUG\TINYXML2.OBJ
C:\USERS\ARNO-W\DOCUMENTS\PROJECTS\SSGI\VISUALSTUDIO\SSGI\DEBUG\APPLICATION.OBJ
C:\USERS\ARNO-W\DOCUMENTS\PROJECTS\SSGI\VISUALSTUDIO\SSGI\DEBUG\APPLICATIONCFG.OBJ
C:\USERS\ARNO-W\DOCUMENTS\PROJECTS\SSGI\VISUALSTUDIO\SSGI\DEBUG\MAIN.OBJ
C:\USERS\ARNO-W\DOCUMENTS\PROJECTS\SSGI\VISUALSTUDIO\SSGI\DEBUG\UPDATEHANDLER.OBJ
^C:\USERS\ARNO-W\DOCUMENTS\PROJECTS\SSGI\EXTERNAL\TINYXML2\TINYXML2.CPP
C:\USERS\ARNO-W\DOCUMENTS\PROJECTS\SSGI\VISUALSTUDIO\SSGI\DEBUG\VC120.PDB
^C:\USERS\ARNO-W\DOCUMENTS\PROJECTS\SSGI\SHADER\TEST\POSITIONFROMDEPTH.FS
C:\USERS\ARNO-W\DOCUMENTS\PROJECTS\SSGI\VISUALSTUDIO\SSGI\DEBUG\VC120.PDB
C:\USERS\ARNO-W\DOCUMENTS\PROJECTS\SSGI\VISUALSTUDIO\SSGI\DEBUG\VC120.IDB
^C:\USERS\ARNO-W\DOCUMENTS\PROJECTS\SSGI\SOURCE\APPLICATION.CPP
C:\USERS\ARNO-W\DOCUMENTS\PROJECTS\SSGI\VISUALSTUDIO\SSGI\DEBUG\VC120.PDB
C:\USERS\ARNO-W\DOCUMENTS\PROJECTS\SSGI\VISUALSTUDIO\SSGI\DEBUG\VC120.IDB
^C:\USERS\ARNO-W\DOCUMENTS\PROJECTS\SSGI\SOURCE\APPLICATIONCFG.CPP
C:\USERS\ARNO-W\DOCUMENTS\PROJECTS\SSGI\VISUALSTUDIO\SSGI\DEBUG\VC120.PDB
C:\USERS\ARNO-W\DOCUMENTS\PROJECTS\SSGI\VISUALSTUDIO\SSGI\DEBUG\VC120.IDB
C:\USERS\ARNO-W\DOCUMENTS\PROJECTS\SSGI\VISUALSTUDIO\SSGI\DEBUG\APPLICATIONCFG.OBJ
^C:\USERS\ARNO-W\DOCUMENTS\PROJECTS\SSGI\SOURCE\MAIN.CPP
C:\USERS\ARNO-W\DOCUMENTS\PROJECTS\SSGI\VISUALSTUDIO\SSGI\DEBUG\VC120.PDB
C:\USERS\ARNO-W\DOCUMENTS\PROJECTS\SSGI\VISUALSTUDIO\SSGI\DEBUG\VC120.IDB
C:\USERS\ARNO-W\DOCUMENTS\PROJECTS\SSGI\VISUALSTUDIO\SSGI\DEBUG\MAIN.OBJ
^C:\USERS\ARNO-W\DOCUMENTS\PROJECTS\SSGI\SOURCE\UPDATEHANDLER.CPP
C:\USERS\ARNO-W\DOCUMENTS\PROJECTS\SSGI\VISUALSTUDIO\SSGI\DEBUG\VC120.PDB
^C:\USERS\ARNO-W\DOCUMENTS\PROJECTS\SSGI\SOURCE\APPLICATION.CPP|C:\USERS\ARNO-W\DOCUMENTS\PROJECTS\SSGI\SOURCE\MAIN.CPP
C:\USERS\ARNO-W\DOCUMENTS\PROJECTS\SSGI\VISUALSTUDIO\SSGI\DEBUG\VC120.PDB
C:\USERS\ARNO-W\DOCUMENTS\PROJECTS\SSGI\VISUALSTUDIO\SSGI\DEBUG\VC120.IDB
C:\USERS\ARNO-W\DOCUMENTS\PROJECTS\SSGI\VISUALSTUDIO\SSGI\DEBUG\MAIN.OBJ
^C:\USERS\ARNO-W\DOCUMENTS\PROJECTS\SSGI\SOURCE\APPLICATION.CPP|C:\USERS\ARNO-W\DOCUMENTS\PROJECTS\SSGI\SOURCE\APPLICATIONCFG.CPP
C:\USERS\ARNO-W\DOCUMENTS\PROJECTS\SSGI\VISUALSTUDIO\SSGI\DEBUG\VC120.PDB
C:\USERS\ARNO-W\DOCUMENTS\PROJECTS\SSGI\VISUALSTUDIO\SSGI\DEBUG\VC120.IDB
C:\USERS\ARNO-W\DOCUMENTS\PROJECTS\SSGI\VISUALSTUDIO\SSGI\DEBUG\APPLICATION.OBJ
^C:\USERS\ARNO-W\DOCUMENTS\PROJECTS\SSGI\SOURCE\CAMERA.CPP|C:\USERS\ARNO-W\DOCUMENTS\PROJECTS\SSGI\SOURCE\LIGHT.CPP|C:\USERS\ARNO-W\DOCUMENTS\PROJECTS\SSGI\SOURCE\LOADOBJ.CPP|C:\USERS\ARNO-W\DOCUMENTS\PROJECTS\SSGI\SOURCE\MATERIAL.CPP|C:\USERS\ARNO-W\DOCUMENTS\PROJECTS\SSGI\SOURCE\MESH.CPP|C:\USERS\ARNO-W\DOCUMENTS\PROJECTS\SSGI\SOURCE\SCENE.CPP
C:\USERS\ARNO-W\DOCUMENTS\PROJECTS\SSGI\VISUALSTUDIO\SSGI\DEBUG\VC120.PDB
C:\USERS\ARNO-W\DOCUMENTS\PROJECTS\SSGI\VISUALSTUDIO\SSGI\DEBUG\VC120.IDB
C:\USERS\ARNO-W\DOCUMENTS\PROJECTS\SSGI\VISUALSTUDIO\SSGI\DEBUG\MATERIAL.OBJ
C:\USERS\ARNO-W\DOCUMENTS\PROJECTS\SSGI\VISUALSTUDIO\SSGI\DEBUG\LOADOBJ.OBJ
C:\USERS\ARNO-W\DOCUMENTS\PROJECTS\SSGI\VISUALSTUDIO\SSGI\DEBUG\MESH.OBJ
C:\USERS\ARNO-W\DOCUMENTS\PROJECTS\SSGI\VISUALSTUDIO\SSGI\DEBUG\CAMERA.OBJ
^C:\USERS\ARNO-W\DOCUMENTS\PROJECTS\SSGI\SOURCE\CAMERA.CPP
C:\USERS\ARNO-W\DOCUMENTS\PROJECTS\SSGI\VISUALSTUDIO\SSGI\DEBUG\VC120.PDB
C:\USERS\ARNO-W\DOCUMENTS\PROJECTS\SSGI\VISUALSTUDIO\SSGI\DEBUG\VC120.IDB
^C:\USERS\ARNO-W\DOCUMENTS\PROJECTS\SSGI\SOURCE\LIGHT.CPP
C:\USERS\ARNO-W\DOCUMENTS\PROJECTS\SSGI\VISUALSTUDIO\SSGI\DEBUG\VC120.PDB
^C:\USERS\ARNO-W\DOCUMENTS\PROJECTS\SSGI\SOURCE\LOADOBJ.CPP
C:\USERS\ARNO-W\DOCUMENTS\PROJECTS\SSGI\VISUALSTUDIO\SSGI\DEBUG\VC120.PDB
C:\USERS\ARNO-W\DOCUMENTS\PROJECTS\SSGI\VISUALSTUDIO\SSGI\DEBUG\VC120.IDB
C:\USERS\ARNO-W\DOCUMENTS\PROJECTS\SSGI\VISUALSTUDIO\SSGI\DEBUG\LOADOBJ.OBJ
^C:\USERS\ARNO-W\DOCUMENTS\PROJECTS\SSGI\SOURCE\MATERIAL.CPP
C:\USERS\ARNO-W\DOCUMENTS\PROJECTS\SSGI\VISUALSTUDIO\SSGI\DEBUG\VC120.PDB
^C:\USERS\ARNO-W\DOCUMENTS\PROJECTS\SSGI\SOURCE\MESH.CPP
C:\USERS\ARNO-W\DOCUMENTS\PROJECTS\SSGI\VISUALSTUDIO\SSGI\DEBUG\VC120.PDB
^C:\USERS\ARNO-W\DOCUMENTS\PROJECTS\SSGI\SOURCE\SCENE.CPP
C:\USERS\ARNO-W\DOCUMENTS\PROJECTS\SSGI\VISUALSTUDIO\SSGI\DEBUG\VC120.PDB
C:\USERS\ARNO-W\DOCUMENTS\PROJECTS\SSGI\VISUALSTUDIO\SSGI\DEBUG\VC120.IDB
^C:\USERS\ARNO-W\DOCUMENTS\PROJECTS\SSGI\SOURCE\CAMERA.CPP|C:\USERS\ARNO-W\DOCUMENTS\PROJECTS\SSGI\SOURCE\LIGHT.CPP|C:\USERS\ARNO-W\DOCUMENTS\PROJECTS\SSGI\SOURCE\LOADOBJ.CPP|C:\USERS\ARNO-W\DOCUMENTS\PROJECTS\SSGI\SOURCE\MESH.CPP|C:\USERS\ARNO-W\DOCUMENTS\PROJECTS\SSGI\SOURCE\SCENE.CPP
C:\USERS\ARNO-W\DOCUMENTS\PROJECTS\SSGI\VISUALSTUDIO\SSGI\DEBUG\VC120.PDB
C:\USERS\ARNO-W\DOCUMENTS\PROJECTS\SSGI\VISUALSTUDIO\SSGI\DEBUG\VC120.IDB
C:\USERS\ARNO-W\DOCUMENTS\PROJECTS\SSGI\VISUALSTUDIO\SSGI\DEBUG\MESH.OBJ
^C:\USERS\ARNO-W\DOCUMENTS\PROJECTS\SSGI\SOURCE\CAMERA.CPP|C:\USERS\ARNO-W\DOCUMENTS\PROJECTS\SSGI\SOURCE\LIGHT.CPP|C:\USERS\ARNO-W\DOCUMENTS\PROJECTS\SSGI\SOURCE\LOADOBJ.CPP|C:\USERS\ARNO-W\DOCUMENTS\PROJECTS\SSGI\SOURCE\SCENE.CPP
C:\USERS\ARNO-W\DOCUMENTS\PROJECTS\SSGI\VISUALSTUDIO\SSGI\DEBUG\VC120.PDB
C:\USERS\ARNO-W\DOCUMENTS\PROJECTS\SSGI\VISUALSTUDIO\SSGI\DEBUG\VC120.IDB
C:\USERS\ARNO-W\DOCUMENTS\PROJECTS\SSGI\VISUALSTUDIO\SSGI\DEBUG\LOADOBJ.OBJ
^C:\USERS\ARNO-W\DOCUMENTS\PROJECTS\SSGI\SOURCE\CAMERA.CPP|C:\USERS\ARNO-W\DOCUMENTS\PROJECTS\SSGI\SOURCE\LIGHT.CPP|C:\USERS\ARNO-W\DOCUMENTS\PROJECTS\SSGI\SOURCE\SCENE.CPP
C:\USERS\ARNO-W\DOCUMENTS\PROJECTS\SSGI\VISUALSTUDIO\SSGI\DEBUG\VC120.PDB
C:\USERS\ARNO-W\DOCUMENTS\PROJECTS\SSGI\VISUALSTUDIO\SSGI\DEBUG\VC120.IDB
C:\USERS\ARNO-W\DOCUMENTS\PROJECTS\SSGI\VISUALSTUDIO\SSGI\DEBUG\CAMERA.OBJ
C:\USERS\ARNO-W\DOCUMENTS\PROJECTS\SSGI\VISUALSTUDIO\SSGI\DEBUG\LIGHT.OBJ
^C:\USERS\ARNO-W\DOCUMENTS\PROJECTS\SSGI\SOURCE\LOADOBJ.CPP|C:\USERS\ARNO-W\DOCUMENTS\PROJECTS\SSGI\SOURCE\SCENE.CPP
C:\USERS\ARNO-W\DOCUMENTS\PROJECTS\SSGI\VISUALSTUDIO\SSGI\DEBUG\VC120.PDB
C:\USERS\ARNO-W\DOCUMENTS\PROJECTS\SSGI\VISUALSTUDIO\SSGI\DEBUG\VC120.IDB
^C:\USERS\ARNO-W\DOCUMENTS\PROJECTS\SSGI\SOURCE\APPLICATION.CPP|C:\USERS\ARNO-W\DOCUMENTS\PROJECTS\SSGI\SOURCE\CAMERA.CPP|C:\USERS\ARNO-W\DOCUMENTS\PROJECTS\SSGI\SOURCE\LIGHT.CPP|C:\USERS\ARNO-W\DOCUMENTS\PROJECTS\SSGI\SOURCE\LOADOBJ.CPP|C:\USERS\ARNO-W\DOCUMENTS\PROJECTS\SSGI\SOURCE\MATERIAL.CPP|C:\USERS\ARNO-W\DOCUMENTS\PROJECTS\SSGI\SOURCE\MESH.CPP|C:\USERS\ARNO-W\DOCUMENTS\PROJECTS\SSGI\SOURCE\SCENE.CPP
C:\USERS\ARNO-W\DOCUMENTS\PROJECTS\SSGI\VISUALSTUDIO\SSGI\DEBUG\VC120.PDB
C:\USERS\ARNO-W\DOCUMENTS\PROJECTS\SSGI\VISUALSTUDIO\SSGI\DEBUG\VC120.IDB
C:\USERS\ARNO-W\DOCUMENTS\PROJECTS\SSGI\VISUALSTUDIO\SSGI\DEBUG\APPLICATION.OBJ
C:\USERS\ARNO-W\DOCUMENTS\PROJECTS\SSGI\VISUALSTUDIO\SSGI\DEBUG\SCENE.OBJ
C:\USERS\ARNO-W\DOCUMENTS\PROJECTS\SSGI\VISUALSTUDIO\SSGI\DEBUG\CAMERA.OBJ
C:\USERS\ARNO-W\DOCUMENTS\PROJECTS\SSGI\VISUALSTUDIO\SSGI\DEBUG\LIGHT.OBJ
C:\USERS\ARNO-W\DOCUMENTS\PROJECTS\SSGI\VISUALSTUDIO\SSGI\DEBUG\MATERIAL.OBJ
C:\USERS\ARNO-W\DOCUMENTS\PROJECTS\SSGI\VISUALSTUDIO\SSGI\DEBUG\MESH.OBJ
^C:\USERS\ARNO-W\DOCUMENTS\PROJECTS\SSGI\SOURCE\APPLICATION.CPP|C:\USERS\ARNO-W\DOCUMENTS\PROJECTS\SSGI\SOURCE\APPLICATIONCFG.CPP|C:\USERS\ARNO-W\DOCUMENTS\PROJECTS\SSGI\SOURCE\LIGHT.CPP|C:\USERS\ARNO-W\DOCUMENTS\PROJECTS\SSGI\SOURCE\LOADOBJ.CPP|C:\USERS\ARNO-W\DOCUMENTS\PROJECTS\SSGI\SOURCE\MAIN.CPP|C:\USERS\ARNO-W\DOCUMENTS\PROJECTS\SSGI\SOURCE\MATERIAL.CPP|C:\USERS\ARNO-W\DOCUMENTS\PROJECTS\SSGI\SOURCE\MESH.CPP|C:\USERS\ARNO-W\DOCUMENTS\PROJECTS\SSGI\SOURCE\SCENE.CPP
C:\USERS\ARNO-W\DOCUMENTS\PROJECTS\SSGI\VISUALSTUDIO\SSGI\DEBUG\VC120.PDB
C:\USERS\ARNO-W\DOCUMENTS\PROJECTS\SSGI\VISUALSTUDIO\SSGI\DEBUG\VC120.IDB
C:\USERS\ARNO-W\DOCUMENTS\PROJECTS\SSGI\VISUALSTUDIO\SSGI\DEBUG\APPLICATIONCFG.OBJ
C:\USERS\ARNO-W\DOCUMENTS\PROJECTS\SSGI\VISUALSTUDIO\SSGI\DEBUG\LIGHT.OBJ
^C:\USERS\ARNO-W\DOCUMENTS\PROJECTS\SSGI\SOURCE\APPLICATION.CPP|C:\USERS\ARNO-W\DOCUMENTS\PROJECTS\SSGI\SOURCE\LOADOBJ.CPP|C:\USERS\ARNO-W\DOCUMENTS\PROJECTS\SSGI\SOURCE\MAIN.CPP|C:\USERS\ARNO-W\DOCUMENTS\PROJECTS\SSGI\SOURCE\MATERIAL.CPP|C:\USERS\ARNO-W\DOCUMENTS\PROJECTS\SSGI\SOURCE\MESH.CPP|C:\USERS\ARNO-W\DOCUMENTS\PROJECTS\SSGI\SOURCE\SCENE.CPP
C:\USERS\ARNO-W\DOCUMENTS\PROJECTS\SSGI\VISUALSTUDIO\SSGI\DEBUG\VC120.PDB
C:\USERS\ARNO-W\DOCUMENTS\PROJECTS\SSGI\VISUALSTUDIO\SSGI\DEBUG\VC120.IDB
C:\USERS\ARNO-W\DOCUMENTS\PROJECTS\SSGI\VISUALSTUDIO\SSGI\DEBUG\MAIN.OBJ
^C:\USERS\ARNO-W\DOCUMENTS\PROJECTS\SSGI\SOURCE\APPLICATION.CPP|C:\USERS\ARNO-W\DOCUMENTS\PROJECTS\SSGI\SOURCE\LOADOBJ.CPP|C:\USERS\ARNO-W\DOCUMENTS\PROJECTS\SSGI\SOURCE\MATERIAL.CPP|C:\USERS\ARNO-W\DOCUMENTS\PROJECTS\SSGI\SOURCE\MESH.CPP|C:\USERS\ARNO-W\DOCUMENTS\PROJECTS\SSGI\SOURCE\SCENE.CPP
C:\USERS\ARNO-W\DOCUMENTS\PROJECTS\SSGI\VISUALSTUDIO\SSGI\DEBUG\VC120.PDB
C:\USERS\ARNO-W\DOCUMENTS\PROJECTS\SSGI\VISUALSTUDIO\SSGI\DEBUG\VC120.IDB
^C:\USERS\ARNO-W\DOCUMENTS\PROJECTS\SSGI\SOURCE\APPLICATION.CPP|C:\USERS\ARNO-W\DOCUMENTS\PROJECTS\SSGI\SOURCE\CAMERA.CPP|C:\USERS\ARNO-W\DOCUMENTS\PROJECTS\SSGI\SOURCE\LIGHT.CPP|C:\USERS\ARNO-W\DOCUMENTS\PROJECTS\SSGI\SOURCE\LOADOBJ.CPP|C:\USERS\ARNO-W\DOCUMENTS\PROJECTS\SSGI\SOURCE\MAIN.CPP|C:\USERS\ARNO-W\DOCUMENTS\PROJECTS\SSGI\SOURCE\MATERIAL.CPP|C:\USERS\ARNO-W\DOCUMENTS\PROJECTS\SSGI\SOURCE\MESH.CPP|C:\USERS\ARNO-W\DOCUMENTS\PROJECTS\SSGI\SOURCE\SCENE.CPP
C:\USERS\ARNO-W\DOCUMENTS\PROJECTS\SSGI\VISUALSTUDIO\SSGI\DEBUG\VC120.PDB
C:\USERS\ARNO-W\DOCUMENTS\PROJECTS\SSGI\VISUALSTUDIO\SSGI\DEBUG\VC120.IDB
C:\USERS\ARNO-W\DOCUMENTS\PROJECTS\SSGI\VISUALSTUDIO\SSGI\DEBUG\APPLICATION.OBJ
C:\USERS\ARNO-W\DOCUMENTS\PROJECTS\SSGI\VISUALSTUDIO\SSGI\DEBUG\CAMERA.OBJ
C:\USERS\ARNO-W\DOCUMENTS\PROJECTS\SSGI\VISUALSTUDIO\SSGI\DEBUG\LIGHT.OBJ
C:\USERS\ARNO-W\DOCUMENTS\PROJECTS\SSGI\VISUALSTUDIO\SSGI\DEBUG\MAIN.OBJ
^C:\USERS\ARNO-W\DOCUMENTS\PROJECTS\SSGI\SOURCE\LOADOBJ.CPP|C:\USERS\ARNO-W\DOCUMENTS\PROJECTS\SSGI\SOURCE\MATERIAL.CPP|C:\USERS\ARNO-W\DOCUMENTS\PROJECTS\SSGI\SOURCE\MESH.CPP|C:\USERS\ARNO-W\DOCUMENTS\PROJECTS\SSGI\SOURCE\SCENE.CPP
C:\USERS\ARNO-W\DOCUMENTS\PROJECTS\SSGI\VISUALSTUDIO\SSGI\DEBUG\VC120.PDB
C:\USERS\ARNO-W\DOCUMENTS\PROJECTS\SSGI\VISUALSTUDIO\SSGI\DEBUG\VC120.IDB
^C:\USERS\ARNO-W\DOCUMENTS\PROJECTS\SSGI\SOURCE\LIGHT.CPP|C:\USERS\ARNO-W\DOCUMENTS\PROJECTS\SSGI\SOURCE\LOADOBJ.CPP|C:\USERS\ARNO-W\DOCUMENTS\PROJECTS\SSGI\SOURCE\SCENE.CPP
C:\USERS\ARNO-W\DOCUMENTS\PROJECTS\SSGI\VISUALSTUDIO\SSGI\DEBUG\VC120.PDB
C:\USERS\ARNO-W\DOCUMENTS\PROJECTS\SSGI\VISUALSTUDIO\SSGI\DEBUG\VC120.IDB
C:\USERS\ARNO-W\DOCUMENTS\PROJECTS\SSGI\VISUALSTUDIO\SSGI\DEBUG\LIGHT.OBJ
C:\USERS\ARNO-W\DOCUMENTS\PROJECTS\SSGI\VISUALSTUDIO\SSGI\DEBUG\SCENE.OBJ
^C:\USERS\ARNO-W\DOCUMENTS\PROJECTS\SSGI\SOURCE\DEVICESURFACE.CPP|C:\USERS\ARNO-W\DOCUMENTS\PROJECTS\SSGI\SOURCE\RENDERCFG.CPP|C:\USERS\ARNO-W\DOCUMENTS\PROJECTS\SSGI\SOURCE\RENDERER.CPP
C:\USERS\ARNO-W\DOCUMENTS\PROJECTS\SSGI\VISUALSTUDIO\SSGI\DEBUG\VC120.PDB
C:\USERS\ARNO-W\DOCUMENTS\PROJECTS\SSGI\VISUALSTUDIO\SSGI\DEBUG\VC120.IDB
C:\USERS\ARNO-W\DOCUMENTS\PROJECTS\SSGI\VISUALSTUDIO\SSGI\DEBUG\RENDERCFG.OBJ
^C:\USERS\ARNO-W\DOCUMENTS\PROJECTS\SSGI\SOURCE\DEVICESURFACE.CPP
C:\USERS\ARNO-W\DOCUMENTS\PROJECTS\SSGI\VISUALSTUDIO\SSGI\DEBUG\VC120.PDB
C:\USERS\ARNO-W\DOCUMENTS\PROJECTS\SSGI\VISUALSTUDIO\SSGI\DEBUG\VC120.IDB
^C:\USERS\ARNO-W\DOCUMENTS\PROJECTS\SSGI\SOURCE\RENDERCFG.CPP
C:\USERS\ARNO-W\DOCUMENTS\PROJECTS\SSGI\VISUALSTUDIO\SSGI\DEBUG\VC120.PDB
C:\USERS\ARNO-W\DOCUMENTS\PROJECTS\SSGI\VISUALSTUDIO\SSGI\DEBUG\VC120.IDB
C:\USERS\ARNO-W\DOCUMENTS\PROJECTS\SSGI\VISUALSTUDIO\SSGI\DEBUG\RENDERCFG.OBJ
^C:\USERS\ARNO-W\DOCUMENTS\PROJECTS\SSGI\SOURCE\RENDERER.CPP
C:\USERS\ARNO-W\DOCUMENTS\PROJECTS\SSGI\VISUALSTUDIO\SSGI\DEBUG\VC120.PDB
C:\USERS\ARNO-W\DOCUMENTS\PROJECTS\SSGI\VISUALSTUDIO\SSGI\DEBUG\VC120.IDB
^C:\USERS\ARNO-W\DOCUMENTS\PROJECTS\SSGI\SOURCE\DEVICESURFACE.CPP|C:\USERS\ARNO-W\DOCUMENTS\PROJECTS\SSGI\SOURCE\RENDERER.CPP
C:\USERS\ARNO-W\DOCUMENTS\PROJECTS\SSGI\VISUALSTUDIO\SSGI\DEBUG\VC120.PDB
C:\USERS\ARNO-W\DOCUMENTS\PROJECTS\SSGI\VISUALSTUDIO\SSGI\DEBUG\VC120.IDB
C:\USERS\ARNO-W\DOCUMENTS\PROJECTS\SSGI\VISUALSTUDIO\SSGI\DEBUG\DEVICESURFACE.OBJ
C:\USERS\ARNO-W\DOCUMENTS\PROJECTS\SSGI\VISUALSTUDIO\SSGI\DEBUG\RENDERER.OBJ
^C:\USERS\ARNO-W\DOCUMENTS\PROJECTS\SSGI\SOURCE\RENDERCFG.CPP|C:\USERS\ARNO-W\DOCUMENTS\PROJECTS\SSGI\SOURCE\RENDERER.CPP
C:\USERS\ARNO-W\DOCUMENTS\PROJECTS\SSGI\VISUALSTUDIO\SSGI\DEBUG\VC120.PDB
C:\USERS\ARNO-W\DOCUMENTS\PROJECTS\SSGI\VISUALSTUDIO\SSGI\DEBUG\VC120.IDB
C:\USERS\ARNO-W\DOCUMENTS\PROJECTS\SSGI\VISUALSTUDIO\SSGI\DEBUG\RENDERCFG.OBJ
^C:\USERS\ARNO-W\DOCUMENTS\PROJECTS\SSGI\SOURCE\APPLICATION.CPP|C:\USERS\ARNO-W\DOCUMENTS\PROJECTS\SSGI\SOURCE\CAMERA.CPP|C:\USERS\ARNO-W\DOCUMENTS\PROJECTS\SSGI\SOURCE\DEVICESURFACE.CPP|C:\USERS\ARNO-W\DOCUMENTS\PROJECTS\SSGI\SOURCE\LIGHT.CPP|C:\USERS\ARNO-W\DOCUMENTS\PROJECTS\SSGI\SOURCE\LOADOBJ.CPP|C:\USERS\ARNO-W\DOCUMENTS\PROJECTS\SSGI\SOURCE\MAIN.CPP|C:\USERS\ARNO-W\DOCUMENTS\PROJECTS\SSGI\SOURCE\RENDERCFG.CPP|C:\USERS\ARNO-W\DOCUMENTS\PROJECTS\SSGI\SOURCE\RENDERER.CPP|C:\USERS\ARNO-W\DOCUMENTS\PROJECTS\SSGI\SOURCE\SCENE.CPP
C:\USERS\ARNO-W\DOCUMENTS\PROJECTS\SSGI\VISUALSTUDIO\SSGI\DEBUG\VC120.PDB
C:\USERS\ARNO-W\DOCUMENTS\PROJECTS\SSGI\VISUALSTUDIO\SSGI\DEBUG\VC120.IDB
C:\USERS\ARNO-W\DOCUMENTS\PROJECTS\SSGI\VISUALSTUDIO\SSGI\DEBUG\APPLICATION.OBJ
C:\USERS\ARNO-W\DOCUMENTS\PROJECTS\SSGI\VISUALSTUDIO\SSGI\DEBUG\CAMERA.OBJ
C:\USERS\ARNO-W\DOCUMENTS\PROJECTS\SSGI\VISUALSTUDIO\SSGI\DEBUG\LIGHT.OBJ
C:\USERS\ARNO-W\DOCUMENTS\PROJECTS\SSGI\VISUALSTUDIO\SSGI\DEBUG\LOADOBJ.OBJ
C:\USERS\ARNO-W\DOCUMENTS\PROJECTS\SSGI\VISUALSTUDIO\SSGI\DEBUG\MAIN.OBJ
C:\USERS\ARNO-W\DOCUMENTS\PROJECTS\SSGI\VISUALSTUDIO\SSGI\DEBUG\RENDERCFG.OBJ
C:\USERS\ARNO-W\DOCUMENTS\PROJECTS\SSGI\VISUALSTUDIO\SSGI\DEBUG\SCENE.OBJ
^C:\USERS\ARNO-W\DOCUMENTS\PROJECTS\SSGI\SOURCE\RENDERTARGET.CPP
C:\USERS\ARNO-W\DOCUMENTS\PROJECTS\SSGI\VISUALSTUDIO\SSGI\DEBUG\VC120.PDB
C:\USERS\ARNO-W\DOCUMENTS\PROJECTS\SSGI\VISUALSTUDIO\SSGI\DEBUG\VC120.IDB
C:\USERS\ARNO-W\DOCUMENTS\PROJECTS\SSGI\VISUALSTUDIO\SSGI\DEBUG\RENDERTARGET.OBJ
^C:\USERS\ARNO-W\DOCUMENTS\PROJECTS\SSGI\SOURCE\MAIN.CPP|C:\USERS\ARNO-W\DOCUMENTS\PROJECTS\SSGI\SOURCE\RENDERER.CPP
C:\USERS\ARNO-W\DOCUMENTS\PROJECTS\SSGI\VISUALSTUDIO\SSGI\DEBUG\VC120.PDB
C:\USERS\ARNO-W\DOCUMENTS\PROJECTS\SSGI\VISUALSTUDIO\SSGI\DEBUG\VC120.IDB
C:\USERS\ARNO-W\DOCUMENTS\PROJECTS\SSGI\VISUALSTUDIO\SSGI\DEBUG\MAIN.OBJ
C:\USERS\ARNO-W\DOCUMENTS\PROJECTS\SSGI\VISUALSTUDIO\SSGI\DEBUG\RENDERER.OBJ
^C:\USERS\ARNO-W\DOCUMENTS\PROJECTS\SSGI\SOURCE\DEVICESURFACE.CPP|C:\USERS\ARNO-W\DOCUMENTS\PROJECTS\SSGI\SOURCE\GBUFFER.CPP|C:\USERS\ARNO-W\DOCUMENTS\PROJECTS\SSGI\SOURCE\RENDERCFG.CPP|C:\USERS\ARNO-W\DOCUMENTS\PROJECTS\SSGI\SOURCE\RENDERER.CPP
C:\USERS\ARNO-W\DOCUMENTS\PROJECTS\SSGI\VISUALSTUDIO\SSGI\DEBUG\VC120.PDB
C:\USERS\ARNO-W\DOCUMENTS\PROJECTS\SSGI\VISUALSTUDIO\SSGI\DEBUG\VC120.IDB
C:\USERS\ARNO-W\DOCUMENTS\PROJECTS\SSGI\VISUALSTUDIO\SSGI\DEBUG\RENDERCFG.OBJ
C:\USERS\ARNO-W\DOCUMENTS\PROJECTS\SSGI\VISUALSTUDIO\SSGI\DEBUG\RENDERER.OBJ
C:\USERS\ARNO-W\DOCUMENTS\PROJECTS\SSGI\VISUALSTUDIO\SSGI\DEBUG\DEVICESURFACE.OBJ
^C:\USERS\ARNO-W\DOCUMENTS\PROJECTS\SSGI\SOURCE\GBUFFER.CPP
C:\USERS\ARNO-W\DOCUMENTS\PROJECTS\SSGI\VISUALSTUDIO\SSGI\DEBUG\VC120.PDB
C:\USERS\ARNO-W\DOCUMENTS\PROJECTS\SSGI\VISUALSTUDIO\SSGI\DEBUG\VC120.IDB
C:\USERS\ARNO-W\DOCUMENTS\PROJECTS\SSGI\VISUALSTUDIO\SSGI\DEBUG\GBUFFER.OBJ
^C:\USERS\ARNO-W\DOCUMENTS\PROJECTS\SSGI\SOURCE\DEVICESURFACE.CPP|C:\USERS\ARNO-W\DOCUMENTS\PROJECTS\SSGI\SOURCE\GBUFFER.CPP|C:\USERS\ARNO-W\DOCUMENTS\PROJECTS\SSGI\SOURCE\RENDERER.CPP
C:\USERS\ARNO-W\DOCUMENTS\PROJECTS\SSGI\VISUALSTUDIO\SSGI\DEBUG\VC120.PDB
C:\USERS\ARNO-W\DOCUMENTS\PROJECTS\SSGI\VISUALSTUDIO\SSGI\DEBUG\VC120.IDB
C:\USERS\ARNO-W\DOCUMENTS\PROJECTS\SSGI\VISUALSTUDIO\SSGI\DEBUG\RENDERER.OBJ
C:\USERS\ARNO-W\DOCUMENTS\PROJECTS\SSGI\VISUALSTUDIO\SSGI\DEBUG\GBUFFER.OBJ
C:\USERS\ARNO-W\DOCUMENTS\PROJECTS\SSGI\VISUALSTUDIO\SSGI\DEBUG\DEVICESURFACE.OBJ
^C:\USERS\ARNO-W\DOCUMENTS\PROJECTS\SSGI\SOURCE\GBUFFER.CPP|C:\USERS\ARNO-W\DOCUMENTS\PROJECTS\SSGI\SOURCE\RENDERER.CPP
C:\USERS\ARNO-W\DOCUMENTS\PROJECTS\SSGI\VISUALSTUDIO\SSGI\DEBUG\VC120.PDB
C:\USERS\ARNO-W\DOCUMENTS\PROJECTS\SSGI\VISUALSTUDIO\SSGI\DEBUG\VC120.IDB
C:\USERS\ARNO-W\DOCUMENTS\PROJECTS\SSGI\VISUALSTUDIO\SSGI\DEBUG\GBUFFER.OBJ
^C:\USERS\ARNO-W\DOCUMENTS\PROJECTS\SSGI\SOURCE\APPLICATION.CPP|C:\USERS\ARNO-W\DOCUMENTS\PROJECTS\SSGI\SOURCE\CAMERA.CPP|C:\USERS\ARNO-W\DOCUMENTS\PROJECTS\SSGI\SOURCE\DEVICESURFACE.CPP|C:\USERS\ARNO-W\DOCUMENTS\PROJECTS\SSGI\SOURCE\GBUFFER.CPP|C:\USERS\ARNO-W\DOCUMENTS\PROJECTS\SSGI\SOURCE\LIGHT.CPP|C:\USERS\ARNO-W\DOCUMENTS\PROJECTS\SSGI\SOURCE\LOADOBJ.CPP|C:\USERS\ARNO-W\DOCUMENTS\PROJECTS\SSGI\SOURCE\MAIN.CPP|C:\USERS\ARNO-W\DOCUMENTS\PROJECTS\SSGI\SOURCE\RENDERCFG.CPP|C:\USERS\ARNO-W\DOCUMENTS\PROJECTS\SSGI\SOURCE\RENDERER.CPP|C:\USERS\ARNO-W\DOCUMENTS\PROJECTS\SSGI\SOURCE\SCENE.CPP
C:\USERS\ARNO-W\DOCUMENTS\PROJECTS\SSGI\VISUALSTUDIO\SSGI\DEBUG\VC120.PDB
C:\USERS\ARNO-W\DOCUMENTS\PROJECTS\SSGI\VISUALSTUDIO\SSGI\DEBUG\VC120.IDB
C:\USERS\ARNO-W\DOCUMENTS\PROJECTS\SSGI\VISUALSTUDIO\SSGI\DEBUG\APPLICATION.OBJ
C:\USERS\ARNO-W\DOCUMENTS\PROJECTS\SSGI\VISUALSTUDIO\SSGI\DEBUG\CAMERA.OBJ
C:\USERS\ARNO-W\DOCUMENTS\PROJECTS\SSGI\VISUALSTUDIO\SSGI\DEBUG\DEVICESURFACE.OBJ
C:\USERS\ARNO-W\DOCUMENTS\PROJECTS\SSGI\VISUALSTUDIO\SSGI\DEBUG\GBUFFER.OBJ
C:\USERS\ARNO-W\DOCUMENTS\PROJECTS\SSGI\VISUALSTUDIO\SSGI\DEBUG\LIGHT.OBJ
C:\USERS\ARNO-W\DOCUMENTS\PROJECTS\SSGI\VISUALSTUDIO\SSGI\DEBUG\LOADOBJ.OBJ
C:\USERS\ARNO-W\DOCUMENTS\PROJECTS\SSGI\VISUALSTUDIO\SSGI\DEBUG\MAIN.OBJ
C:\USERS\ARNO-W\DOCUMENTS\PROJECTS\SSGI\VISUALSTUDIO\SSGI\DEBUG\RENDERCFG.OBJ
C:\USERS\ARNO-W\DOCUMENTS\PROJECTS\SSGI\VISUALSTUDIO\SSGI\DEBUG\RENDERER.OBJ
C:\USERS\ARNO-W\DOCUMENTS\PROJECTS\SSGI\VISUALSTUDIO\SSGI\DEBUG\SCENE.OBJ
^C:\USERS\ARNO-W\DOCUMENTS\PROJECTS\SSGI\SOURCE\GBUFFER.CPP|C:\USERS\ARNO-W\DOCUMENTS\PROJECTS\SSGI\SOURCE\MAIN.CPP|C:\USERS\ARNO-W\DOCUMENTS\PROJECTS\SSGI\SOURCE\RENDERER.CPP
C:\USERS\ARNO-W\DOCUMENTS\PROJECTS\SSGI\VISUALSTUDIO\SSGI\DEBUG\VC120.PDB
C:\USERS\ARNO-W\DOCUMENTS\PROJECTS\SSGI\VISUALSTUDIO\SSGI\DEBUG\VC120.IDB
C:\USERS\ARNO-W\DOCUMENTS\PROJECTS\SSGI\VISUALSTUDIO\SSGI\DEBUG\GBUFFER.OBJ
C:\USERS\ARNO-W\DOCUMENTS\PROJECTS\SSGI\VISUALSTUDIO\SSGI\DEBUG\MAIN.OBJ
C:\USERS\ARNO-W\DOCUMENTS\PROJECTS\SSGI\VISUALSTUDIO\SSGI\DEBUG\RENDERER.OBJ
^C:\USERS\ARNO-W\DOCUMENTS\PROJECTS\SSGI\EXTERNAL\TINYXML2\TINYXML2.CPP|C:\USERS\ARNO-W\DOCUMENTS\PROJECTS\SSGI\SOURCE\APPLICATION.CPP|C:\USERS\ARNO-W\DOCUMENTS\PROJECTS\SSGI\SOURCE\APPLICATIONCFG.CPP|C:\USERS\ARNO-W\DOCUMENTS\PROJECTS\SSGI\SOURCE\CAMERA.CPP|C:\USERS\ARNO-W\DOCUMENTS\PROJECTS\SSGI\SOURCE\DEVICESURFACE.CPP|C:\USERS\ARNO-W\DOCUMENTS\PROJECTS\SSGI\SOURCE\GBUFFER.CPP|C:\USERS\ARNO-W\DOCUMENTS\PROJECTS\SSGI\SOURCE\LIGHT.CPP|C:\USERS\ARNO-W\DOCUMENTS\PROJECTS\SSGI\SOURCE\LOADOBJ.CPP|C:\USERS\ARNO-W\DOCUMENTS\PROJECTS\SSGI\SOURCE\MAIN.CPP|C:\USERS\ARNO-W\DOCUMENTS\PROJECTS\SSGI\SOURCE\RENDERCFG.CPP|C:\USERS\ARNO-W\DOCUMENTS\PROJECTS\SSGI\SOURCE\RENDERER.CPP|C:\USERS\ARNO-W\DOCUMENTS\PROJECTS\SSGI\SOURCE\SCENE.CPP|C:\USERS\ARNO-W\DOCUMENTS\PROJECTS\SSGI\SOURCE\UPDATEHANDLER.CPP
C:\USERS\ARNO-W\DOCUMENTS\PROJECTS\SSGI\VISUALSTUDIO\SSGI\DEBUG\VC120.PDB
C:\USERS\ARNO-W\DOCUMENTS\PROJECTS\SSGI\VISUALSTUDIO\SSGI\DEBUG\VC120.IDB
C:\USERS\ARNO-W\DOCUMENTS\PROJECTS\SSGI\VISUALSTUDIO\SSGI\DEBUG\TINYXML2.OBJ
C:\USERS\ARNO-W\DOCUMENTS\PROJECTS\SSGI\VISUALSTUDIO\SSGI\DEBUG\APPLICATION.OBJ
C:\USERS\ARNO-W\DOCUMENTS\PROJECTS\SSGI\VISUALSTUDIO\SSGI\DEBUG\APPLICATIONCFG.OBJ
C:\USERS\ARNO-W\DOCUMENTS\PROJECTS\SSGI\VISUALSTUDIO\SSGI\DEBUG\CAMERA.OBJ
C:\USERS\ARNO-W\DOCUMENTS\PROJECTS\SSGI\VISUALSTUDIO\SSGI\DEBUG\DEVICESURFACE.OBJ
C:\USERS\ARNO-W\DOCUMENTS\PROJECTS\SSGI\VISUALSTUDIO\SSGI\DEBUG\GBUFFER.OBJ
C:\USERS\ARNO-W\DOCUMENTS\PROJECTS\SSGI\VISUALSTUDIO\SSGI\DEBUG\LIGHT.OBJ
C:\USERS\ARNO-W\DOCUMENTS\PROJECTS\SSGI\VISUALSTUDIO\SSGI\DEBUG\LOADOBJ.OBJ
C:\USERS\ARNO-W\DOCUMENTS\PROJECTS\SSGI\VISUALSTUDIO\SSGI\DEBUG\MAIN.OBJ
C:\USERS\ARNO-W\DOCUMENTS\PROJECTS\SSGI\VISUALSTUDIO\SSGI\DEBUG\RENDERCFG.OBJ
C:\USERS\ARNO-W\DOCUMENTS\PROJECTS\SSGI\VISUALSTUDIO\SSGI\DEBUG\RENDERER.OBJ
C:\USERS\ARNO-W\DOCUMENTS\PROJECTS\SSGI\VISUALSTUDIO\SSGI\DEBUG\SCENE.OBJ
C:\USERS\ARNO-W\DOCUMENTS\PROJECTS\SSGI\VISUALSTUDIO\SSGI\DEBUG\UPDATEHANDLER.OBJ
^C:\USERS\ARNO-W\DOCUMENTS\PROJECTS\SSGI\SOURCE\RADIOSITYBUFFER.CPP|C:\USERS\ARNO-W\DOCUMENTS\PROJECTS\SSGI\SOURCE\RENDERCFG.CPP|C:\USERS\ARNO-W\DOCUMENTS\PROJECTS\SSGI\SOURCE\RENDERER.CPP
C:\USERS\ARNO-W\DOCUMENTS\PROJECTS\SSGI\VISUALSTUDIO\SSGI\DEBUG\VC120.PDB
C:\USERS\ARNO-W\DOCUMENTS\PROJECTS\SSGI\VISUALSTUDIO\SSGI\DEBUG\VC120.IDB
C:\USERS\ARNO-W\DOCUMENTS\PROJECTS\SSGI\VISUALSTUDIO\SSGI\DEBUG\RADIOSITYBUFFER.OBJ
C:\USERS\ARNO-W\DOCUMENTS\PROJECTS\SSGI\VISUALSTUDIO\SSGI\DEBUG\RENDERCFG.OBJ
^C:\USERS\ARNO-W\DOCUMENTS\PROJECTS\SSGI\SOURCE\RADIOSITYBUFFER.CPP
C:\USERS\ARNO-W\DOCUMENTS\PROJECTS\SSGI\VISUALSTUDIO\SSGI\DEBUG\VC120.PDB
C:\USERS\ARNO-W\DOCUMENTS\PROJECTS\SSGI\VISUALSTUDIO\SSGI\DEBUG\VC120.IDB
C:\USERS\ARNO-W\DOCUMENTS\PROJECTS\SSGI\VISUALSTUDIO\SSGI\DEBUG\RADIOSITYBUFFER.OBJ
^C:\USERS\ARNO-W\DOCUMENTS\PROJECTS\SSGI\SOURCE\RADIOSITYBUFFER.CPP|C:\USERS\ARNO-W\DOCUMENTS\PROJECTS\SSGI\SOURCE\RENDERER.CPP
C:\USERS\ARNO-W\DOCUMENTS\PROJECTS\SSGI\VISUALSTUDIO\SSGI\DEBUG\VC120.PDB
C:\USERS\ARNO-W\DOCUMENTS\PROJECTS\SSGI\VISUALSTUDIO\SSGI\DEBUG\VC120.IDB
C:\USERS\ARNO-W\DOCUMENTS\PROJECTS\SSGI\VISUALSTUDIO\SSGI\DEBUG\RENDERER.OBJ
^C:\USERS\ARNO-W\DOCUMENTS\PROJECTS\SSGI\SOURCE\GBUFFER.CPP|C:\USERS\ARNO-W\DOCUMENTS\PROJECTS\SSGI\SOURCE\RADIOSITYBUFFER.CPP
C:\USERS\ARNO-W\DOCUMENTS\PROJECTS\SSGI\VISUALSTUDIO\SSGI\DEBUG\VC120.PDB
C:\USERS\ARNO-W\DOCUMENTS\PROJECTS\SSGI\VISUALSTUDIO\SSGI\DEBUG\VC120.IDB
C:\USERS\ARNO-W\DOCUMENTS\PROJECTS\SSGI\VISUALSTUDIO\SSGI\DEBUG\GBUFFER.OBJ
C:\USERS\ARNO-W\DOCUMENTS\PROJECTS\SSGI\VISUALSTUDIO\SSGI\DEBUG\RADIOSITYBUFFER.OBJ
^C:\USERS\ARNO-W\DOCUMENTS\PROJECTS\SSGI\SOURCE\FULLSCREENQUAD.CPP
C:\USERS\ARNO-W\DOCUMENTS\PROJECTS\SSGI\VISUALSTUDIO\SSGI\DEBUG\VC120.PDB
C:\USERS\ARNO-W\DOCUMENTS\PROJECTS\SSGI\VISUALSTUDIO\SSGI\DEBUG\VC120.IDB
C:\USERS\ARNO-W\DOCUMENTS\PROJECTS\SSGI\VISUALSTUDIO\SSGI\DEBUG\FULLSCREENQUAD.OBJ
^C:\USERS\ARNO-W\DOCUMENTS\PROJECTS\SSGI\SOURCE\DEVICESURFACE.CPP|C:\USERS\ARNO-W\DOCUMENTS\PROJECTS\SSGI\SOURCE\FULLSCREENQUAD.CPP|C:\USERS\ARNO-W\DOCUMENTS\PROJECTS\SSGI\SOURCE\GBUFFER.CPP|C:\USERS\ARNO-W\DOCUMENTS\PROJECTS\SSGI\SOURCE\RENDERER.CPP
C:\USERS\ARNO-W\DOCUMENTS\PROJECTS\SSGI\VISUALSTUDIO\SSGI\DEBUG\VC120.PDB
C:\USERS\ARNO-W\DOCUMENTS\PROJECTS\SSGI\VISUALSTUDIO\SSGI\DEBUG\VC120.IDB
C:\USERS\ARNO-W\DOCUMENTS\PROJECTS\SSGI\VISUALSTUDIO\SSGI\DEBUG\FULLSCREENQUAD.OBJ
^C:\USERS\ARNO-W\DOCUMENTS\PROJECTS\SSGI\SOURCE\DEVICESURFACE.CPP|C:\USERS\ARNO-W\DOCUMENTS\PROJECTS\SSGI\SOURCE\FULLSCREENQUAD.CPP|C:\USERS\ARNO-W\DOCUMENTS\PROJECTS\SSGI\SOURCE\GBUFFER.CPP|C:\USERS\ARNO-W\DOCUMENTS\PROJECTS\SSGI\SOURCE\RADIOSITYBUFFER.CPP|C:\USERS\ARNO-W\DOCUMENTS\PROJECTS\SSGI\SOURCE\RENDERER.CPP
C:\USERS\ARNO-W\DOCUMENTS\PROJECTS\SSGI\VISUALSTUDIO\SSGI\DEBUG\VC120.PDB
C:\USERS\ARNO-W\DOCUMENTS\PROJECTS\SSGI\VISUALSTUDIO\SSGI\DEBUG\VC120.IDB
C:\USERS\ARNO-W\DOCUMENTS\PROJECTS\SSGI\VISUALSTUDIO\SSGI\DEBUG\DEVICESURFACE.OBJ
C:\USERS\ARNO-W\DOCUMENTS\PROJECTS\SSGI\VISUALSTUDIO\SSGI\DEBUG\RADIOSITYBUFFER.OBJ
C:\USERS\ARNO-W\DOCUMENTS\PROJECTS\SSGI\VISUALSTUDIO\SSGI\DEBUG\RENDERER.OBJ
C:\USERS\ARNO-W\DOCUMENTS\PROJECTS\SSGI\VISUALSTUDIO\SSGI\DEBUG\FULLSCREENQUAD.OBJ
C:\USERS\ARNO-W\DOCUMENTS\PROJECTS\SSGI\VISUALSTUDIO\SSGI\DEBUG\GBUFFER.OBJ
^C:\USERS\ARNO-W\DOCUMENTS\PROJECTS\SSGI\SOURCE\FULLSCREENQUAD.CPP|C:\USERS\ARNO-W\DOCUMENTS\PROJECTS\SSGI\SOURCE\RADIOSITYBUFFER.CPP|C:\USERS\ARNO-W\DOCUMENTS\PROJECTS\SSGI\SOURCE\RENDERER.CPP
C:\USERS\ARNO-W\DOCUMENTS\PROJECTS\SSGI\VISUALSTUDIO\SSGI\DEBUG\VC120.PDB
C:\USERS\ARNO-W\DOCUMENTS\PROJECTS\SSGI\VISUALSTUDIO\SSGI\DEBUG\VC120.IDB
C:\USERS\ARNO-W\DOCUMENTS\PROJECTS\SSGI\VISUALSTUDIO\SSGI\DEBUG\RADIOSITYBUFFER.OBJ
C:\USERS\ARNO-W\DOCUMENTS\PROJECTS\SSGI\VISUALSTUDIO\SSGI\DEBUG\RENDERER.OBJ
^C:\USERS\ARNO-W\DOCUMENTS\PROJECTS\SSGI\SOURCE\DEVICESURFACE.CPP|C:\USERS\ARNO-W\DOCUMENTS\PROJECTS\SSGI\SOURCE\FULLSCREENQUAD.CPP
C:\USERS\ARNO-W\DOCUMENTS\PROJECTS\SSGI\VISUALSTUDIO\SSGI\DEBUG\VC120.PDB
C:\USERS\ARNO-W\DOCUMENTS\PROJECTS\SSGI\VISUALSTUDIO\SSGI\DEBUG\VC120.IDB
C:\USERS\ARNO-W\DOCUMENTS\PROJECTS\SSGI\VISUALSTUDIO\SSGI\DEBUG\DEVICESURFACE.OBJ
C:\USERS\ARNO-W\DOCUMENTS\PROJECTS\SSGI\VISUALSTUDIO\SSGI\DEBUG\FULLSCREENQUAD.OBJ
^C:\USERS\ARNO-W\DOCUMENTS\PROJECTS\SSGI\SOURCE\CAMERA.CPP|C:\USERS\ARNO-W\DOCUMENTS\PROJECTS\SSGI\SOURCE\GBUFFER.CPP|C:\USERS\ARNO-W\DOCUMENTS\PROJECTS\SSGI\SOURCE\SCENE.CPP
C:\USERS\ARNO-W\DOCUMENTS\PROJECTS\SSGI\VISUALSTUDIO\SSGI\DEBUG\VC120.PDB
C:\USERS\ARNO-W\DOCUMENTS\PROJECTS\SSGI\VISUALSTUDIO\SSGI\DEBUG\VC120.IDB
C:\USERS\ARNO-W\DOCUMENTS\PROJECTS\SSGI\VISUALSTUDIO\SSGI\DEBUG\GBUFFER.OBJ
C:\USERS\ARNO-W\DOCUMENTS\PROJECTS\SSGI\VISUALSTUDIO\SSGI\DEBUG\SCENE.OBJ
^C:\USERS\ARNO-W\DOCUMENTS\PROJECTS\SSGI\SOURCE\CAMERA.CPP|C:\USERS\ARNO-W\DOCUMENTS\PROJECTS\SSGI\SOURCE\GBUFFER.CPP|C:\USERS\ARNO-W\DOCUMENTS\PROJECTS\SSGI\SOURCE\RADIOSITYBUFFER.CPP|C:\USERS\ARNO-W\DOCUMENTS\PROJECTS\SSGI\SOURCE\SCENE.CPP
C:\USERS\ARNO-W\DOCUMENTS\PROJECTS\SSGI\VISUALSTUDIO\SSGI\DEBUG\VC120.PDB
C:\USERS\ARNO-W\DOCUMENTS\PROJECTS\SSGI\VISUALSTUDIO\SSGI\DEBUG\VC120.IDB
C:\USERS\ARNO-W\DOCUMENTS\PROJECTS\SSGI\VISUALSTUDIO\SSGI\DEBUG\CAMERA.OBJ
C:\USERS\ARNO-W\DOCUMENTS\PROJECTS\SSGI\VISUALSTUDIO\SSGI\DEBUG\RADIOSITYBUFFER.OBJ
^C:\USERS\ARNO-W\DOCUMENTS\PROJECTS\SSGI\SOURCE\GBUFFER.CPP|C:\USERS\ARNO-W\DOCUMENTS\PROJECTS\SSGI\SOURCE\RADIOSITYBUFFER.CPP|C:\USERS\ARNO-W\DOCUMENTS\PROJECTS\SSGI\SOURCE\RENDERER.CPP
C:\USERS\ARNO-W\DOCUMENTS\PROJECTS\SSGI\VISUALSTUDIO\SSGI\DEBUG\VC120.PDB
C:\USERS\ARNO-W\DOCUMENTS\PROJECTS\SSGI\VISUALSTUDIO\SSGI\DEBUG\VC120.IDB
C:\USERS\ARNO-W\DOCUMENTS\PROJECTS\SSGI\VISUALSTUDIO\SSGI\DEBUG\RENDERER.OBJ
C:\USERS\ARNO-W\DOCUMENTS\PROJECTS\SSGI\VISUALSTUDIO\SSGI\DEBUG\GBUFFER.OBJ
^C:\USERS\ARNO-W\DOCUMENTS\PROJECTS\SSGI\SOURCE\RENDERER.CPP|C:\USERS\ARNO-W\DOCUMENTS\PROJECTS\SSGI\SOURCE\SSAOXRAD.CPP
C:\USERS\ARNO-W\DOCUMENTS\PROJECTS\SSGI\VISUALSTUDIO\SSGI\DEBUG\VC120.PDB
C:\USERS\ARNO-W\DOCUMENTS\PROJECTS\SSGI\VISUALSTUDIO\SSGI\DEBUG\VC120.IDB
C:\USERS\ARNO-W\DOCUMENTS\PROJECTS\SSGI\VISUALSTUDIO\SSGI\DEBUG\RENDERER.OBJ
C:\USERS\ARNO-W\DOCUMENTS\PROJECTS\SSGI\VISUALSTUDIO\SSGI\DEBUG\SSAOXRAD.OBJ
^C:\USERS\ARNO-W\DOCUMENTS\PROJECTS\SSGI\SOURCE\SSAOXRAD.CPP
C:\USERS\ARNO-W\DOCUMENTS\PROJECTS\SSGI\VISUALSTUDIO\SSGI\DEBUG\VC120.PDB
C:\USERS\ARNO-W\DOCUMENTS\PROJECTS\SSGI\VISUALSTUDIO\SSGI\DEBUG\VC120.IDB
C:\USERS\ARNO-W\DOCUMENTS\PROJECTS\SSGI\VISUALSTUDIO\SSGI\DEBUG\SSAOXRAD.OBJ
^C:\USERS\ARNO-W\DOCUMENTS\PROJECTS\SSGI\SOURCE\RADIOSITYBUFFER.CPP|C:\USERS\ARNO-W\DOCUMENTS\PROJECTS\SSGI\SOURCE\RENDERER.CPP|C:\USERS\ARNO-W\DOCUMENTS\PROJECTS\SSGI\SOURCE\SSAOXRAD.CPP
C:\USERS\ARNO-W\DOCUMENTS\PROJECTS\SSGI\VISUALSTUDIO\SSGI\DEBUG\VC120.PDB
C:\USERS\ARNO-W\DOCUMENTS\PROJECTS\SSGI\VISUALSTUDIO\SSGI\DEBUG\VC120.IDB
C:\USERS\ARNO-W\DOCUMENTS\PROJECTS\SSGI\VISUALSTUDIO\SSGI\DEBUG\RADIOSITYBUFFER.OBJ
C:\USERS\ARNO-W\DOCUMENTS\PROJECTS\SSGI\VISUALSTUDIO\SSGI\DEBUG\RENDERER.OBJ
C:\USERS\ARNO-W\DOCUMENTS\PROJECTS\SSGI\VISUALSTUDIO\SSGI\DEBUG\SSAOXRAD.OBJ
^C:\USERS\ARNO-W\DOCUMENTS\PROJECTS\SSGI\SOURCE\GBUFFER.CPP|C:\USERS\ARNO-W\DOCUMENTS\PROJECTS\SSGI\SOURCE\RADIOSITYBUFFER.CPP|C:\USERS\ARNO-W\DOCUMENTS\PROJECTS\SSGI\SOURCE\RENDERCFG.CPP|C:\USERS\ARNO-W\DOCUMENTS\PROJECTS\SSGI\SOURCE\RENDERER.CPP|C:\USERS\ARNO-W\DOCUMENTS\PROJECTS\SSGI\SOURCE\SSAOXRAD.CPP
C:\USERS\ARNO-W\DOCUMENTS\PROJECTS\SSGI\VISUALSTUDIO\SSGI\DEBUG\VC120.PDB
C:\USERS\ARNO-W\DOCUMENTS\PROJECTS\SSGI\VISUALSTUDIO\SSGI\DEBUG\VC120.IDB
C:\USERS\ARNO-W\DOCUMENTS\PROJECTS\SSGI\VISUALSTUDIO\SSGI\DEBUG\RENDERCFG.OBJ
C:\USERS\ARNO-W\DOCUMENTS\PROJECTS\SSGI\VISUALSTUDIO\SSGI\DEBUG\GBUFFER.OBJ
C:\USERS\ARNO-W\DOCUMENTS\PROJECTS\SSGI\VISUALSTUDIO\SSGI\DEBUG\RADIOSITYBUFFER.OBJ
C:\USERS\ARNO-W\DOCUMENTS\PROJECTS\SSGI\VISUALSTUDIO\SSGI\DEBUG\SSAOXRAD.OBJ
C:\USERS\ARNO-W\DOCUMENTS\PROJECTS\SSGI\VISUALSTUDIO\SSGI\DEBUG\RENDERER.OBJ
^C:\USERS\ARNO-W\DOCUMENTS\PROJECTS\SSGI\SOURCE\COMPOSE.CPP
C:\USERS\ARNO-W\DOCUMENTS\PROJECTS\SSGI\VISUALSTUDIO\SSGI\DEBUG\VC120.PDB
C:\USERS\ARNO-W\DOCUMENTS\PROJECTS\SSGI\VISUALSTUDIO\SSGI\DEBUG\VC120.IDB
C:\USERS\ARNO-W\DOCUMENTS\PROJECTS\SSGI\VISUALSTUDIO\SSGI\DEBUG\COMPOSE.OBJ
^C:\USERS\ARNO-W\DOCUMENTS\PROJECTS\SSGI\SOURCE\COMPOSE.CPP|C:\USERS\ARNO-W\DOCUMENTS\PROJECTS\SSGI\SOURCE\RENDERER.CPP
C:\USERS\ARNO-W\DOCUMENTS\PROJECTS\SSGI\VISUALSTUDIO\SSGI\DEBUG\VC120.PDB
C:\USERS\ARNO-W\DOCUMENTS\PROJECTS\SSGI\VISUALSTUDIO\SSGI\DEBUG\VC120.IDB
C:\USERS\ARNO-W\DOCUMENTS\PROJECTS\SSGI\VISUALSTUDIO\SSGI\DEBUG\COMPOSE.OBJ
C:\USERS\ARNO-W\DOCUMENTS\PROJECTS\SSGI\VISUALSTUDIO\SSGI\DEBUG\RENDERER.OBJ
^C:\USERS\ARNO-W\DOCUMENTS\PROJECTS\SSGI\SOURCE\RENDERCFG.CPP|C:\USERS\ARNO-W\DOCUMENTS\PROJECTS\SSGI\SOURCE\SSAOXRAD.CPP
C:\USERS\ARNO-W\DOCUMENTS\PROJECTS\SSGI\VISUALSTUDIO\SSGI\DEBUG\VC120.PDB
C:\USERS\ARNO-W\DOCUMENTS\PROJECTS\SSGI\VISUALSTUDIO\SSGI\DEBUG\VC120.IDB
C:\USERS\ARNO-W\DOCUMENTS\PROJECTS\SSGI\VISUALSTUDIO\SSGI\DEBUG\RENDERCFG.OBJ
C:\USERS\ARNO-W\DOCUMENTS\PROJECTS\SSGI\VISUALSTUDIO\SSGI\DEBUG\SSAOXRAD.OBJ
^C:\USERS\ARNO-W\DOCUMENTS\PROJECTS\SSGI\SOURCE\COMPOSE.CPP|C:\USERS\ARNO-W\DOCUMENTS\PROJECTS\SSGI\SOURCE\RENDERCFG.CPP
C:\USERS\ARNO-W\DOCUMENTS\PROJECTS\SSGI\VISUALSTUDIO\SSGI\DEBUG\VC120.PDB
C:\USERS\ARNO-W\DOCUMENTS\PROJECTS\SSGI\VISUALSTUDIO\SSGI\DEBUG\VC120.IDB
C:\USERS\ARNO-W\DOCUMENTS\PROJECTS\SSGI\VISUALSTUDIO\SSGI\DEBUG\COMPOSE.OBJ
C:\USERS\ARNO-W\DOCUMENTS\PROJECTS\SSGI\VISUALSTUDIO\SSGI\DEBUG\RENDERCFG.OBJ
^C:\USERS\ARNO-W\DOCUMENTS\PROJECTS\SSGI\EXTERNAL\TINYXML2\TINYXML2.CPP|C:\USERS\ARNO-W\DOCUMENTS\PROJECTS\SSGI\SOURCE\APPLICATION.CPP|C:\USERS\ARNO-W\DOCUMENTS\PROJECTS\SSGI\SOURCE\APPLICATIONCFG.CPP|C:\USERS\ARNO-W\DOCUMENTS\PROJECTS\SSGI\SOURCE\CAMERA.CPP|C:\USERS\ARNO-W\DOCUMENTS\PROJECTS\SSGI\SOURCE\COMPOSE.CPP|C:\USERS\ARNO-W\DOCUMENTS\PROJECTS\SSGI\SOURCE\DEVICESURFACE.CPP|C:\USERS\ARNO-W\DOCUMENTS\PROJECTS\SSGI\SOURCE\FULLSCREENQUAD.CPP|C:\USERS\ARNO-W\DOCUMENTS\PROJECTS\SSGI\SOURCE\GBUFFER.CPP|C:\USERS\ARNO-W\DOCUMENTS\PROJECTS\SSGI\SOURCE\LIGHT.CPP|C:\USERS\ARNO-W\DOCUMENTS\PROJECTS\SSGI\SOURCE\LOADOBJ.CPP|C:\USERS\ARNO-W\DOCUMENTS\PROJECTS\SSGI\SOURCE\MAIN.CPP|C:\USERS\ARNO-W\DOCUMENTS\PROJECTS\SSGI\SOURCE\PARAMETERTWEAKER.CPP|C:\USERS\ARNO-W\DOCUMENTS\PROJECTS\SSGI\SOURCE\RADIOSITYBUFFER.CPP|C:\USERS\ARNO-W\DOCUMENTS\PROJECTS\SSGI\SOURCE\RENDERCFG.CPP|C:\USERS\ARNO-W\DOCUMENTS\PROJECTS\SSGI\SOURCE\RENDERER.CPP|C:\USERS\ARNO-W\DOCUMENTS\PROJECTS\SSGI\SOURCE\SCENE.CPP|C:\USERS\ARNO-W\DOCUMENTS\PROJECTS\SSGI\SOURCE\SSAOXRAD.CPP|C:\USERS\ARNO-W\DOCUMENTS\PROJECTS\SSGI\SOURCE\UPDATEHANDLER.CPP
C:\USERS\ARNO-W\DOCUMENTS\PROJECTS\SSGI\VISUALSTUDIO\SSGI\DEBUG\VC120.PDB
C:\USERS\ARNO-W\DOCUMENTS\PROJECTS\SSGI\VISUALSTUDIO\SSGI\DEBUG\VC120.IDB
C:\USERS\ARNO-W\DOCUMENTS\PROJECTS\SSGI\VISUALSTUDIO\SSGI\DEBUG\UPDATEHANDLER.OBJ
C:\USERS\ARNO-W\DOCUMENTS\PROJECTS\SSGI\VISUALSTUDIO\SSGI\DEBUG\SSAOXRAD.OBJ
C:\USERS\ARNO-W\DOCUMENTS\PROJECTS\SSGI\VISUALSTUDIO\SSGI\DEBUG\SCENE.OBJ
C:\USERS\ARNO-W\DOCUMENTS\PROJECTS\SSGI\VISUALSTUDIO\SSGI\DEBUG\RENDERER.OBJ
C:\USERS\ARNO-W\DOCUMENTS\PROJECTS\SSGI\VISUALSTUDIO\SSGI\DEBUG\RENDERCFG.OBJ
C:\USERS\ARNO-W\DOCUMENTS\PROJECTS\SSGI\VISUALSTUDIO\SSGI\DEBUG\RADIOSITYBUFFER.OBJ
C:\USERS\ARNO-W\DOCUMENTS\PROJECTS\SSGI\VISUALSTUDIO\SSGI\DEBUG\MAIN.OBJ
C:\USERS\ARNO-W\DOCUMENTS\PROJECTS\SSGI\VISUALSTUDIO\SSGI\DEBUG\LOADOBJ.OBJ
C:\USERS\ARNO-W\DOCUMENTS\PROJECTS\SSGI\VISUALSTUDIO\SSGI\DEBUG\LIGHT.OBJ
C:\USERS\ARNO-W\DOCUMENTS\PROJECTS\SSGI\VISUALSTUDIO\SSGI\DEBUG\GBUFFER.OBJ
C:\USERS\ARNO-W\DOCUMENTS\PROJECTS\SSGI\VISUALSTUDIO\SSGI\DEBUG\FULLSCREENQUAD.OBJ
C:\USERS\ARNO-W\DOCUMENTS\PROJECTS\SSGI\VISUALSTUDIO\SSGI\DEBUG\DEVICESURFACE.OBJ
C:\USERS\ARNO-W\DOCUMENTS\PROJECTS\SSGI\VISUALSTUDIO\SSGI\DEBUG\COMPOSE.OBJ
C:\USERS\ARNO-W\DOCUMENTS\PROJECTS\SSGI\VISUALSTUDIO\SSGI\DEBUG\CAMERA.OBJ
C:\USERS\ARNO-W\DOCUMENTS\PROJECTS\SSGI\VISUALSTUDIO\SSGI\DEBUG\APPLICATIONCFG.OBJ
C:\USERS\ARNO-W\DOCUMENTS\PROJECTS\SSGI\VISUALSTUDIO\SSGI\DEBUG\APPLICATION.OBJ
C:\USERS\ARNO-W\DOCUMENTS\PROJECTS\SSGI\VISUALSTUDIO\SSGI\DEBUG\TINYXML2.OBJ
^C:\USERS\ARNO-W\DOCUMENTS\PROJECTS\SSGI\SOURCE\PARAMETERTWEAKER.CPP
C:\USERS\ARNO-W\DOCUMENTS\PROJECTS\SSGI\VISUALSTUDIO\SSGI\DEBUG\VC120.PDB
C:\USERS\ARNO-W\DOCUMENTS\PROJECTS\SSGI\VISUALSTUDIO\SSGI\DEBUG\VC120.IDB
C:\USERS\ARNO-W\DOCUMENTS\PROJECTS\SSGI\VISUALSTUDIO\SSGI\DEBUG\PARAMETERTWEAKER.OBJ
^C:\USERS\ARNO-W\DOCUMENTS\PROJECTS\SSGI\SOURCE\COMPOSE.CPP|C:\USERS\ARNO-W\DOCUMENTS\PROJECTS\SSGI\SOURCE\GBUFFER.CPP|C:\USERS\ARNO-W\DOCUMENTS\PROJECTS\SSGI\SOURCE\PARAMETERTWEAKER.CPP|C:\USERS\ARNO-W\DOCUMENTS\PROJECTS\SSGI\SOURCE\RADIOSITYBUFFER.CPP|C:\USERS\ARNO-W\DOCUMENTS\PROJECTS\SSGI\SOURCE\RENDERCFG.CPP|C:\USERS\ARNO-W\DOCUMENTS\PROJECTS\SSGI\SOURCE\RENDERER.CPP|C:\USERS\ARNO-W\DOCUMENTS\PROJECTS\SSGI\SOURCE\SSAOXRAD.CPP
C:\USERS\ARNO-W\DOCUMENTS\PROJECTS\SSGI\VISUALSTUDIO\SSGI\DEBUG\VC120.PDB
C:\USERS\ARNO-W\DOCUMENTS\PROJECTS\SSGI\VISUALSTUDIO\SSGI\DEBUG\VC120.IDB
C:\USERS\ARNO-W\DOCUMENTS\PROJECTS\SSGI\VISUALSTUDIO\SSGI\DEBUG\COMPOSE.OBJ
C:\USERS\ARNO-W\DOCUMENTS\PROJECTS\SSGI\VISUALSTUDIO\SSGI\DEBUG\GBUFFER.OBJ
C:\USERS\ARNO-W\DOCUMENTS\PROJECTS\SSGI\VISUALSTUDIO\SSGI\DEBUG\RADIOSITYBUFFER.OBJ
C:\USERS\ARNO-W\DOCUMENTS\PROJECTS\SSGI\VISUALSTUDIO\SSGI\DEBUG\RENDERER.OBJ
C:\USERS\ARNO-W\DOCUMENTS\PROJECTS\SSGI\VISUALSTUDIO\SSGI\DEBUG\PARAMETERTWEAKER.OBJ
C:\USERS\ARNO-W\DOCUMENTS\PROJECTS\SSGI\VISUALSTUDIO\SSGI\DEBUG\SSAOXRAD.OBJ
C:\USERS\ARNO-W\DOCUMENTS\PROJECTS\SSGI\VISUALSTUDIO\SSGI\DEBUG\RENDERCFG.OBJ
^C:\USERS\ARNO-W\DOCUMENTS\PROJECTS\SSGI\SOURCE\COMPOSE.CPP|C:\USERS\ARNO-W\DOCUMENTS\PROJECTS\SSGI\SOURCE\GBUFFER.CPP|C:\USERS\ARNO-W\DOCUMENTS\PROJECTS\SSGI\SOURCE\PARAMETERTWEAKER.CPP|C:\USERS\ARNO-W\DOCUMENTS\PROJECTS\SSGI\SOURCE\RADIOSITYBUFFER.CPP|C:\USERS\ARNO-W\DOCUMENTS\PROJECTS\SSGI\SOURCE\RENDERER.CPP|C:\USERS\ARNO-W\DOCUMENTS\PROJECTS\SSGI\SOURCE\SSAOXRAD.CPP
C:\USERS\ARNO-W\DOCUMENTS\PROJECTS\SSGI\VISUALSTUDIO\SSGI\DEBUG\VC120.PDB
C:\USERS\ARNO-W\DOCUMENTS\PROJECTS\SSGI\VISUALSTUDIO\SSGI\DEBUG\VC120.IDB
C:\USERS\ARNO-W\DOCUMENTS\PROJECTS\SSGI\VISUALSTUDIO\SSGI\DEBUG\COMPOSE.OBJ
C:\USERS\ARNO-W\DOCUMENTS\PROJECTS\SSGI\VISUALSTUDIO\SSGI\DEBUG\GBUFFER.OBJ
C:\USERS\ARNO-W\DOCUMENTS\PROJECTS\SSGI\VISUALSTUDIO\SSGI\DEBUG\PARAMETERTWEAKER.OBJ
C:\USERS\ARNO-W\DOCUMENTS\PROJECTS\SSGI\VISUALSTUDIO\SSGI\DEBUG\RADIOSITYBUFFER.OBJ
C:\USERS\ARNO-W\DOCUMENTS\PROJECTS\SSGI\VISUALSTUDIO\SSGI\DEBUG\RENDERER.OBJ
^C:\USERS\ARNO-W\DOCUMENTS\PROJECTS\SSGI\SOURCE\DEVICESURFACE.CPP|C:\USERS\ARNO-W\DOCUMENTS\PROJECTS\SSGI\SOURCE\GBUFFER.CPP|C:\USERS\ARNO-W\DOCUMENTS\PROJECTS\SSGI\SOURCE\LOADOBJ.CPP|C:\USERS\ARNO-W\DOCUMENTS\PROJECTS\SSGI\SOURCE\MATERIAL.CPP|C:\USERS\ARNO-W\DOCUMENTS\PROJECTS\SSGI\SOURCE\RENDERER.CPP|C:\USERS\ARNO-W\DOCUMENTS\PROJECTS\SSGI\SOURCE\SCENE.CPP
C:\USERS\ARNO-W\DOCUMENTS\PROJECTS\SSGI\VISUALSTUDIO\SSGI\DEBUG\VC120.PDB
C:\USERS\ARNO-W\DOCUMENTS\PROJECTS\SSGI\VISUALSTUDIO\SSGI\DEBUG\VC120.IDB
C:\USERS\ARNO-W\DOCUMENTS\PROJECTS\SSGI\VISUALSTUDIO\SSGI\DEBUG\DEVICESURFACE.OBJ
C:\USERS\ARNO-W\DOCUMENTS\PROJECTS\SSGI\VISUALSTUDIO\SSGI\DEBUG\GBUFFER.OBJ
C:\USERS\ARNO-W\DOCUMENTS\PROJECTS\SSGI\VISUALSTUDIO\SSGI\DEBUG\LOADOBJ.OBJ
C:\USERS\ARNO-W\DOCUMENTS\PROJECTS\SSGI\VISUALSTUDIO\SSGI\DEBUG\MATERIAL.OBJ
C:\USERS\ARNO-W\DOCUMENTS\PROJECTS\SSGI\VISUALSTUDIO\SSGI\DEBUG\RENDERER.OBJ
C:\USERS\ARNO-W\DOCUMENTS\PROJECTS\SSGI\VISUALSTUDIO\SSGI\DEBUG\SCENE.OBJ
^C:\USERS\ARNO-W\DOCUMENTS\PROJECTS\SSGI\SOURCE\COMPOSE.CPP|C:\USERS\ARNO-W\DOCUMENTS\PROJECTS\SSGI\SOURCE\GBUFFER.CPP|C:\USERS\ARNO-W\DOCUMENTS\PROJECTS\SSGI\SOURCE\RADIOSITYBUFFER.CPP|C:\USERS\ARNO-W\DOCUMENTS\PROJECTS\SSGI\SOURCE\RENDERER.CPP|C:\USERS\ARNO-W\DOCUMENTS\PROJECTS\SSGI\SOURCE\SSAOXRAD.CPP
C:\USERS\ARNO-W\DOCUMENTS\PROJECTS\SSGI\VISUALSTUDIO\SSGI\DEBUG\VC120.PDB
C:\USERS\ARNO-W\DOCUMENTS\PROJECTS\SSGI\VISUALSTUDIO\SSGI\DEBUG\VC120.IDB
C:\USERS\ARNO-W\DOCUMENTS\PROJECTS\SSGI\VISUALSTUDIO\SSGI\DEBUG\GBUFFER.OBJ
C:\USERS\ARNO-W\DOCUMENTS\PROJECTS\SSGI\VISUALSTUDIO\SSGI\DEBUG\RADIOSITYBUFFER.OBJ
C:\USERS\ARNO-W\DOCUMENTS\PROJECTS\SSGI\VISUALSTUDIO\SSGI\DEBUG\RENDERER.OBJ
C:\USERS\ARNO-W\DOCUMENTS\PROJECTS\SSGI\VISUALSTUDIO\SSGI\DEBUG\COMPOSE.OBJ
C:\USERS\ARNO-W\DOCUMENTS\PROJECTS\SSGI\VISUALSTUDIO\SSGI\DEBUG\SSAOXRAD.OBJ
^C:\USERS\ARNO-W\DOCUMENTS\PROJECTS\SSGI\SOURCE\COMPOSE.CPP|C:\USERS\ARNO-W\DOCUMENTS\PROJECTS\SSGI\SOURCE\RENDERER.CPP|C:\USERS\ARNO-W\DOCUMENTS\PROJECTS\SSGI\SOURCE\SSAOXRAD.CPP
C:\USERS\ARNO-W\DOCUMENTS\PROJECTS\SSGI\VISUALSTUDIO\SSGI\DEBUG\VC120.PDB
C:\USERS\ARNO-W\DOCUMENTS\PROJECTS\SSGI\VISUALSTUDIO\SSGI\DEBUG\VC120.IDB
C:\USERS\ARNO-W\DOCUMENTS\PROJECTS\SSGI\VISUALSTUDIO\SSGI\DEBUG\COMPOSE.OBJ
C:\USERS\ARNO-W\DOCUMENTS\PROJECTS\SSGI\VISUALSTUDIO\SSGI\DEBUG\RENDERER.OBJ
C:\USERS\ARNO-W\DOCUMENTS\PROJECTS\SSGI\VISUALSTUDIO\SSGI\DEBUG\SSAOXRAD.OBJ
^C:\USERS\ARNO-W\DOCUMENTS\PROJECTS\SSGI\EXTERNAL\TINYXML2\TINYXML2.CPP|C:\USERS\ARNO-W\DOCUMENTS\PROJECTS\SSGI\SOURCE\APPLICATION.CPP|C:\USERS\ARNO-W\DOCUMENTS\PROJECTS\SSGI\SOURCE\APPLICATIONCFG.CPP|C:\USERS\ARNO-W\DOCUMENTS\PROJECTS\SSGI\SOURCE\CAMERA.CPP|C:\USERS\ARNO-W\DOCUMENTS\PROJECTS\SSGI\SOURCE\COMPOSE.CPP|C:\USERS\ARNO-W\DOCUMENTS\PROJECTS\SSGI\SOURCE\DEVICESURFACE.CPP|C:\USERS\ARNO-W\DOCUMENTS\PROJECTS\SSGI\SOURCE\FULLSCREENQUAD.CPP|C:\USERS\ARNO-W\DOCUMENTS\PROJECTS\SSGI\SOURCE\GBUFFER.CPP|C:\USERS\ARNO-W\DOCUMENTS\PROJECTS\SSGI\SOURCE\LIGHT.CPP|C:\USERS\ARNO-W\DOCUMENTS\PROJECTS\SSGI\SOURCE\LOADOBJ.CPP|C:\USERS\ARNO-W\DOCUMENTS\PROJECTS\SSGI\SOURCE\MAIN.CPP|C:\USERS\ARNO-W\DOCUMENTS\PROJECTS\SSGI\SOURCE\MATERIAL.CPP|C:\USERS\ARNO-W\DOCUMENTS\PROJECTS\SSGI\SOURCE\PARAMETERTWEAKER.CPP|C:\USERS\ARNO-W\DOCUMENTS\PROJECTS\SSGI\SOURCE\RADIOSITYBUFFER.CPP|C:\USERS\ARNO-W\DOCUMENTS\PROJECTS\SSGI\SOURCE\RENDERCFG.CPP|C:\USERS\ARNO-W\DOCUMENTS\PROJECTS\SSGI\SOURCE\RENDERER.CPP|C:\USERS\ARNO-W\DOCUMENTS\PROJECTS\SSGI\SOURCE\SCENE.CPP|C:\USERS\ARNO-W\DOCUMENTS\PROJECTS\SSGI\SOURCE\SSAOXRAD.CPP|C:\USERS\ARNO-W\DOCUMENTS\PROJECTS\SSGI\SOURCE\UPDATEHANDLER.CPP
C:\USERS\ARNO-W\DOCUMENTS\PROJECTS\SSGI\VISUALSTUDIO\SSGI\DEBUG\VC120.PDB
C:\USERS\ARNO-W\DOCUMENTS\PROJECTS\SSGI\VISUALSTUDIO\SSGI\DEBUG\VC120.IDB
C:\USERS\ARNO-W\DOCUMENTS\PROJECTS\SSGI\VISUALSTUDIO\SSGI\DEBUG\TINYXML2.OBJ
C:\USERS\ARNO-W\DOCUMENTS\PROJECTS\SSGI\VISUALSTUDIO\SSGI\DEBUG\APPLICATION.OBJ
C:\USERS\ARNO-W\DOCUMENTS\PROJECTS\SSGI\VISUALSTUDIO\SSGI\DEBUG\APPLICATIONCFG.OBJ
C:\USERS\ARNO-W\DOCUMENTS\PROJECTS\SSGI\VISUALSTUDIO\SSGI\DEBUG\CAMERA.OBJ
C:\USERS\ARNO-W\DOCUMENTS\PROJECTS\SSGI\VISUALSTUDIO\SSGI\DEBUG\COMPOSE.OBJ
C:\USERS\ARNO-W\DOCUMENTS\PROJECTS\SSGI\VISUALSTUDIO\SSGI\DEBUG\DEVICESURFACE.OBJ
C:\USERS\ARNO-W\DOCUMENTS\PROJECTS\SSGI\VISUALSTUDIO\SSGI\DEBUG\FULLSCREENQUAD.OBJ
C:\USERS\ARNO-W\DOCUMENTS\PROJECTS\SSGI\VISUALSTUDIO\SSGI\DEBUG\GBUFFER.OBJ
C:\USERS\ARNO-W\DOCUMENTS\PROJECTS\SSGI\VISUALSTUDIO\SSGI\DEBUG\LIGHT.OBJ
C:\USERS\ARNO-W\DOCUMENTS\PROJECTS\SSGI\VISUALSTUDIO\SSGI\DEBUG\LOADOBJ.OBJ
C:\USERS\ARNO-W\DOCUMENTS\PROJECTS\SSGI\VISUALSTUDIO\SSGI\DEBUG\MAIN.OBJ
C:\USERS\ARNO-W\DOCUMENTS\PROJECTS\SSGI\VISUALSTUDIO\SSGI\DEBUG\MATERIAL.OBJ
C:\USERS\ARNO-W\DOCUMENTS\PROJECTS\SSGI\VISUALSTUDIO\SSGI\DEBUG\PARAMETERTWEAKER.OBJ
C:\USERS\ARNO-W\DOCUMENTS\PROJECTS\SSGI\VISUALSTUDIO\SSGI\DEBUG\RADIOSITYBUFFER.OBJ
C:\USERS\ARNO-W\DOCUMENTS\PROJECTS\SSGI\VISUALSTUDIO\SSGI\DEBUG\RENDERCFG.OBJ
C:\USERS\ARNO-W\DOCUMENTS\PROJECTS\SSGI\VISUALSTUDIO\SSGI\DEBUG\RENDERER.OBJ
C:\USERS\ARNO-W\DOCUMENTS\PROJECTS\SSGI\VISUALSTUDIO\SSGI\DEBUG\SCENE.OBJ
C:\USERS\ARNO-W\DOCUMENTS\PROJECTS\SSGI\VISUALSTUDIO\SSGI\DEBUG\SSAOXRAD.OBJ
C:\USERS\ARNO-W\DOCUMENTS\PROJECTS\SSGI\VISUALSTUDIO\SSGI\DEBUG\UPDATEHANDLER.OBJ
^C:\USERS\ARNO-W\DOCUMENTS\PROJECTS\SSGI\SOURCE\CAMERA.CPP|C:\USERS\ARNO-W\DOCUMENTS\PROJECTS\SSGI\SOURCE\GBUFFER.CPP|C:\USERS\ARNO-W\DOCUMENTS\PROJECTS\SSGI\SOURCE\RADIOSITYBUFFER.CPP|C:\USERS\ARNO-W\DOCUMENTS\PROJECTS\SSGI\SOURCE\SCENE.CPP|C:\USERS\ARNO-W\DOCUMENTS\PROJECTS\SSGI\SOURCE\SSAOXRAD.CPP
C:\USERS\ARNO-W\DOCUMENTS\PROJECTS\SSGI\VISUALSTUDIO\SSGI\DEBUG\VC120.PDB
C:\USERS\ARNO-W\DOCUMENTS\PROJECTS\SSGI\VISUALSTUDIO\SSGI\DEBUG\VC120.IDB
C:\USERS\ARNO-W\DOCUMENTS\PROJECTS\SSGI\VISUALSTUDIO\SSGI\DEBUG\GBUFFER.OBJ
C:\USERS\ARNO-W\DOCUMENTS\PROJECTS\SSGI\VISUALSTUDIO\SSGI\DEBUG\RADIOSITYBUFFER.OBJ
C:\USERS\ARNO-W\DOCUMENTS\PROJECTS\SSGI\VISUALSTUDIO\SSGI\DEBUG\SSAOXRAD.OBJ
C:\USERS\ARNO-W\DOCUMENTS\PROJECTS\SSGI\VISUALSTUDIO\SSGI\DEBUG\SCENE.OBJ
C:\USERS\ARNO-W\DOCUMENTS\PROJECTS\SSGI\VISUALSTUDIO\SSGI\DEBUG\CAMERA.OBJ
^C:\USERS\ARNO-W\DOCUMENTS\PROJECTS\SSGI\SOURCE\PARAMETERTWEAKER.CPP|C:\USERS\ARNO-W\DOCUMENTS\PROJECTS\SSGI\SOURCE\SSAOXRAD.CPP
C:\USERS\ARNO-W\DOCUMENTS\PROJECTS\SSGI\VISUALSTUDIO\SSGI\DEBUG\VC120.PDB
C:\USERS\ARNO-W\DOCUMENTS\PROJECTS\SSGI\VISUALSTUDIO\SSGI\DEBUG\VC120.IDB
C:\USERS\ARNO-W\DOCUMENTS\PROJECTS\SSGI\VISUALSTUDIO\SSGI\DEBUG\PARAMETERTWEAKER.OBJ
C:\USERS\ARNO-W\DOCUMENTS\PROJECTS\SSGI\VISUALSTUDIO\SSGI\DEBUG\SSAOXRAD.OBJ
^C:\USERS\ARNO-W\DOCUMENTS\PROJECTS\SSGI\SOURCE\COMPOSE.CPP|C:\USERS\ARNO-W\DOCUMENTS\PROJECTS\SSGI\SOURCE\FULLSCREENQUAD.CPP|C:\USERS\ARNO-W\DOCUMENTS\PROJECTS\SSGI\SOURCE\GBUFFER.CPP|C:\USERS\ARNO-W\DOCUMENTS\PROJECTS\SSGI\SOURCE\PARAMETERTWEAKER.CPP|C:\USERS\ARNO-W\DOCUMENTS\PROJECTS\SSGI\SOURCE\RADIOSITYBUFFER.CPP|C:\USERS\ARNO-W\DOCUMENTS\PROJECTS\SSGI\SOURCE\SSAOXRAD.CPP
C:\USERS\ARNO-W\DOCUMENTS\PROJECTS\SSGI\VISUALSTUDIO\SSGI\DEBUG\VC120.PDB
C:\USERS\ARNO-W\DOCUMENTS\PROJECTS\SSGI\VISUALSTUDIO\SSGI\DEBUG\VC120.IDB
C:\USERS\ARNO-W\DOCUMENTS\PROJECTS\SSGI\VISUALSTUDIO\SSGI\DEBUG\COMPOSE.OBJ
C:\USERS\ARNO-W\DOCUMENTS\PROJECTS\SSGI\VISUALSTUDIO\SSGI\DEBUG\FULLSCREENQUAD.OBJ
C:\USERS\ARNO-W\DOCUMENTS\PROJECTS\SSGI\VISUALSTUDIO\SSGI\DEBUG\GBUFFER.OBJ
C:\USERS\ARNO-W\DOCUMENTS\PROJECTS\SSGI\VISUALSTUDIO\SSGI\DEBUG\PARAMETERTWEAKER.OBJ
C:\USERS\ARNO-W\DOCUMENTS\PROJECTS\SSGI\VISUALSTUDIO\SSGI\DEBUG\RADIOSITYBUFFER.OBJ
C:\USERS\ARNO-W\DOCUMENTS\PROJECTS\SSGI\VISUALSTUDIO\SSGI\DEBUG\SSAOXRAD.OBJ
