^C:\USERS\ARNO-W\DOCUMENTS\PROJECTS\SSGI\VISUALSTUDIO\SSGI\DEBUG\APPLICATION.OBJ|C:\USERS\ARNO-W\DOCUMENTS\PROJECTS\SSGI\VISUALSTUDIO\SSGI\DEBUG\APPLICATIONCFG.OBJ|C:\USERS\ARNO-W\DOCUMENTS\PROJECTS\SSGI\VISUALSTUDIO\SSGI\DEBUG\CAMERA.OBJ|C:\USERS\ARNO-W\DOCUMENTS\PROJECTS\SSGI\VISUALSTUDIO\SSGI\DEBUG\COMPOSE.OBJ|C:\USERS\ARNO-W\DOCUMENTS\PROJECTS\SSGI\VISUALSTUDIO\SSGI\DEBUG\DEVICESURFACE.OBJ|C:\USERS\ARNO-W\DOCUMENTS\PROJECTS\SSGI\VISUALSTUDIO\SSGI\DEBUG\FULLSCREENQUAD.OBJ|C:\USERS\ARNO-W\DOCUMENTS\PROJECTS\SSGI\VISUALSTUDIO\SSGI\DEBUG\GBUFFER.OBJ|C:\USERS\ARNO-W\DOCUMENTS\PROJECTS\SSGI\VISUALSTUDIO\SSGI\DEBUG\LIGHT.OBJ|C:\USERS\ARNO-W\DOCUMENTS\PROJECTS\SSGI\VISUALSTUDIO\SSGI\DEBUG\LOADOBJ.OBJ|C:\USERS\ARNO-W\DOCUMENTS\PROJECTS\SSGI\VISUALSTUDIO\SSGI\DEBUG\MAIN.OBJ|C:\USERS\ARNO-W\DOCUMENTS\PROJECTS\SSGI\VISUALSTUDIO\SSGI\DEBUG\MATERIAL.OBJ|C:\USERS\ARNO-W\DOCUMENTS\PROJECTS\SSGI\VISUALSTUDIO\SSGI\DEBUG\PARAMETERTWEAKER.OBJ|C:\USERS\ARNO-W\DOCUMENTS\PROJECTS\SSGI\VISUALSTUDIO\SSGI\DEBUG\RADIOSITYBUFFER.OBJ|C:\USERS\ARNO-W\DOCUMENTS\PROJECTS\SSGI\VISUALSTUDIO\SSGI\DEBUG\RENDERCFG.OBJ|C:\USERS\ARNO-W\DOCUMENTS\PROJECTS\SSGI\VISUALSTUDIO\SSGI\DEBUG\RENDERER.OBJ|C:\USERS\ARNO-W\DOCUMENTS\PROJECTS\SSGI\VISUALSTUDIO\SSGI\DEBUG\SCENE.OBJ|C:\USERS\ARNO-W\DOCUMENTS\PROJECTS\SSGI\VISUALSTUDIO\SSGI\DEBUG\SSAOXRAD.OBJ|C:\USERS\ARNO-W\DOCUMENTS\PROJECTS\SSGI\VISUALSTUDIO\SSGI\DEBUG\TINYXML2.OBJ|C:\USERS\ARNO-W\DOCUMENTS\PROJECTS\SSGI\VISUALSTUDIO\SSGI\DEBUG\UPDATEHANDLER.OBJ
C:\USERS\ARNO-W\DOCUMENTS\PROJECTS\SSGI\VISUALSTUDIO\DEBUG\SSGI.ILK
C:\USERS\ARNO-W\DOCUMENTS\PROJECTS\SSGI\VISUALSTUDIO\DEBUG\SSGI.EXE
C:\USERS\ARNO-W\DOCUMENTS\PROJECTS\SSGI\VISUALSTUDIO\DEBUG\SSGI.PDB
