# Blender MTL File: 'None'
# Material Count: 7

newmtl None
Ns 0.000000
Ka 0.000000 0.000000 0.000000
Kd 0.640000 0.640000 0.640000
Ks 0.800000 0.800000 0.800000
Ni 1.000000
d 1.000000
illum 2

newmtl backWall
Ns 3.921569
Ka 0.000000 0.000000 0.000000
Kd 0.464000 0.454400 0.435200
Ks 0.000000 0.000000 0.000000
Ni 1.000000
d 1.000000
illum 2

newmtl ceiling
Ns 3.921569
Ka 0.000000 0.000000 0.000000
Kd 0.464000 0.454400 0.435200
Ks 0.000000 0.000000 0.000000
Ni 1.000000
d 1.000000
illum 2

newmtl floor
Ns 3.921569
Ka 0.000000 0.000000 0.000000
Kd 0.464000 0.454400 0.435200
Ks 0.000000 0.000000 0.000000
Ni 1.000000
d 1.000000
illum 2

newmtl leftWall
Ns 3.921569
Ka 0.000000 0.000000 0.000000
Kd 0.609920 0.228480 0.135680
Ks 0.000000 0.000000 0.000000
Ni 1.500000
d 1.000000
illum 2

newmtl light
Ns 3.921569
Ka 0.000000 0.000000 0.000000
Kd 0.499200 0.499200 0.499200
Ks 0.000000 0.000000 0.000000
Ni 1.500000
d 1.000000
illum 2

newmtl rightWall
Ns 3.921569
Ka 0.000000 0.000000 0.000000
Kd 0.311040 0.403840 0.424320
Ks 0.000000 0.000000 0.000000
Ni 1.500000
d 1.000000
illum 2
