# Blender MTL File: 'None'
# Material Count: 7

newmtl BunnyBox:None
Ns 0.000000
Ka 0.000000 0.000000 0.000000
Kd 0.512000 0.512000 0.512000
Ks 0.400000 0.400000 0.400000
Ni 1.000000
d 0.000000
illum 2

newmtl BunnyBox:backWall
Ns 0.000000
Ka 0.000000 0.000000 0.000000
Kd 0.368000 0.360000 0.352000
Ks 0.000000 0.000000 0.000000
Ni 1.000000
d 0.000000
illum 2

newmtl BunnyBox:ceiling
Ns 0.000000
Ka 0.000000 0.000000 0.000000
Kd 0.368000 0.360000 0.352000
Ks 0.000000 0.000000 0.000000
Ni 1.000000
d 0.000000
illum 2

newmtl BunnyBox:floor
Ns 15.686275
Ka 0.000000 0.000000 0.000000
Kd 0.100000 0.100000 0.100000
Ks 0.750000 0.750000 0.750000
Ni 1.000000
d 0.000000
illum 2

newmtl BunnyBox:leftWall
Ns 0.000000
Ka 0.000000 0.000000 0.000000
Kd 0.488000 0.184000 0.112000
Ks 0.000000 0.000000 0.000000
Ni 1.500000
d 0.000000
illum 2

newmtl BunnyBox:light
Ns 0.000000
Ka 0.000000 0.000000 0.000000
Kd 0.400000 0.400000 0.400000
Ks 0.000000 0.000000 0.000000
Ni 1.500000
d 0.000000
illum 2

newmtl BunnyBox:rightWall
Ns 0.000000
Ka 0.000000 0.000000 0.000000
Kd 0.248000 0.320000 0.336000
Ks 0.000000 0.000000 0.000000
Ni 1.500000
d 0.000000
illum 2
