# Blender MTL File: 'None'
# Material Count: 6

newmtl backWall
Ns 7.843137
Ka 0.000000 0.000000 0.000000
Kd 0.580000 0.568000 0.544000
Ks 0.000000 0.000000 0.000000
Ni 1.000000
d 1.000000
illum 2

newmtl ceiling
Ns 7.843137
Ka 0.000000 0.000000 0.000000
Kd 0.580000 0.568000 0.544000
Ks 0.000000 0.000000 0.000000
Ni 1.000000
d 1.000000
illum 2

newmtl floor
Ns 7.843137
Ka 0.000000 0.000000 0.000000
Kd 0.580000 0.568000 0.544000
Ks 0.000000 0.000000 0.000000
Ni 1.000000
d 1.000000
illum 2

newmtl leftWall
Ns 7.843137
Ka 0.000000 0.000000 0.000000
Kd 0.762400 0.285600 0.169600
Ks 0.000000 0.000000 0.000000
Ni 1.500000
d 1.000000
illum 2

newmtl light
Ns 7.843137
Ka 0.000000 0.000000 0.000000
Kd 0.624000 0.624000 0.624000
Ks 0.000000 0.000000 0.000000
Ni 1.500000
d 1.000000
illum 2

newmtl rightWall
Ns 7.843137
Ka 0.000000 0.000000 0.000000
Kd 0.388800 0.504800 0.530400
Ks 0.000000 0.000000 0.000000
Ni 1.500000
d 1.000000
illum 2
